…
dp_table <- as.data.frame(cbind(variable, label))

We apply the simple wrapper function to fetch data for our variable set by year and geography type:

dp_data <- get_historic_acs(variables=variable, 
                            geography = geos_inc, 
                            year = year_range)

Output from the API query is summarized below:

## # A tibble: 59,424 x 6
##    GEOID NAME          variable   estimate   moe  year
##    <chr> <chr>         <chr>         <dbl> <dbl> <int>
##  1 1     United States DP02_0011P     27.5   0.1  2012
##  2 1     United States DP02_0067P     28.5   0.1  2012
##  3 1     United States DP02_0069P      9.3   0.1  2012
##  4 1     United States DP02_0090P     27     0.1  2012
##  5 1     United States DP02_0092P     12.9   0.1  2012
##  6 1     United States DP02_0111P     79.5   0.1  2012
##  7 1     United States DP03_0005P      6     0.1  2012
##  8 1     United States DP03_0021P      5     0.1  2012
##  9 1     United States DP03_0028P     17.8   0.1  2012
## 10 1     United States DP03_0088   28051    78    2012
## # … with 59,414 more rows
…
